{"count":5,"markets":[{"id":"23656","slug":"super-bowl-champion-2026-731","ticker":"super-bowl-champion-2026-731","question":"Super Bowl Champion 2026","title":"Super Bowl Champion 2026","description":"This is a market on predicting the winner of the NFL Super Bowl for the 2025/26 season. ","status":"active","volume":663615216.977477,"liquidity":13703247.5859,"openInterest":0.0,"image":"https://polymarket-upload.s3.us-east-2.amazonaws.com/football-logo.png","icon":"https://polymarket-upload.s3.us-east-2.amazonaws.com/football-logo.png","startDate":"2025-05-01T20:30:33.749654Z","endDate":"2026-02-08T12:00:00Z","end_date":"2026-02-08T12:00:00Z","creationDate":"2025-05-01T20:30:33.749649Z","createdAt":"2025-04-30T10:43:09.376079Z","updatedAt":"2026-01-10T10:09:17.448659Z","volume24hr":3145369.8150100005,"volume1wk":34781542.722017996,"volume1mo":128897233.05874197,"volume1yr":663511134.6049218,"competitive":0.9107725263645877,"tags":["sports","nfl","cowboys-vs-eagles"],"category":"Sports","markets_count":33,"featured":true,"restricted":true},{"id":"30829","slug":"democratic-presidential-nominee-2028","ticker":"democratic-presidential-nominee-2028","question":"Democratic Presidential Nominee 2028","title":"Democratic Presidential Nominee 2028","description":"This market will resolve to “Yes” if the named individual wins and accepts the 2028 nomination of the Democratic Party for U.S. president. Otherwise, this market will resolve to “No”.\n\nThe resolution source for this market will be a consensus of official Democratic Party sources.\n\nAny replacement of the democratic nominee before election day will not change the resolution of the market.","status":"active","volume":457361906.68221,"liquidity":25045124.04958,"openInterest":0.0,"image":"https://polymarket-upload.s3.us-east-2.amazonaws.com/democrats+2028+donkey.png","icon":"https://polymarket-upload.s3.us-east-2.amazonaws.com/democrats+2028+donkey.png","startDate":"2025-07-11T18:41:17.827458Z","endDate":"2028-11-07T00:00:00Z","end_date":"2028-11-07T00:00:00Z","creationDate":"2025-07-11T18:41:17.827389Z","createdAt":"2025-07-03T20:36:57.824243Z","updatedAt":"2026-01-10T10:09:17.001646Z","volume24hr":3374912.3603739995,"volume1wk":32365098.203810003,"volume1mo":99902004.69968103,"volume1yr":456887638.43125707,"competitive":0.9765386587241522,"tags":["world-elections","global-elections","elections","politics","us-presidential-election","earn-4","primaries"],"category":"World Elections","markets_count":128,"featured":false,"restricted":true},{"id":"45883","slug":"fed-decision-in-january","ticker":"fed-decision-in-january","question":"Fed decision in January?","title":"Fed decision in January?","description":"The FED interest rates are defined in this market by the upper bound of the target federal funds range. The decisions on the target federal fund range are made by the Federal Open Market Committee (FOMC) meetings.\n\nThis market will resolve to the amount of basis points the upper bound of the target federal funds rate is changed by versus the level it was prior to the Federal Reserve's January 2026 meeting.\n\nIf the target federal funds rate is changed to a level not expressed in the displayed options, the change will be rounded up to the nearest 25 and will resolve to the relevant bracket. (e.g. if there's a cut/increase of 12.5 bps it will be considered to be 25 bps)\n\nThe resolution source for this market is the FOMC’s statement after its meeting scheduled for January 27 - 28, 2026 according to the official calendar: https://www.federalreserve.gov/monetarypolicy/fomccalendars.htm.\n\nThe level and change of the target federal funds rate is also published at the official website of the Federal Reserve at https://www.federalreserve.gov/monetarypolicy/openmarket.htm.\n\nThis market may resolve as soon as the FOMC’s statement for their January meeting with relevant data is issued. If no statement is released by the end date of the next scheduled meeting, this market will resolve to the \"No change\" bracket.\n","status":"active","volume":230204817.339004,"liquidity":16139345.33641,"openInterest":0.0,"image":"https://polymarket-upload.s3.us-east-2.amazonaws.com/jerome+powell+glasses1.png","icon":"https://polymarket-upload.s3.us-east-2.amazonaws.com/jerome+powell+glasses1.png","startDate":"2025-09-17T19:05:35.801589Z","endDate":"2026-01-28T00:00:00Z","end_date":"2026-01-28T00:00:00Z","creationDate":"2025-09-17T19:05:35.801585Z","createdAt":"2025-09-17T16:22:33.947135Z","updatedAt":"2026-01-10T10:09:17.433656Z","volume24hr":30958667.027694985,"volume1wk":103521271.57230298,"volume1mo":226975659.34379172,"volume1yr":229803421.84879863,"competitive":0.8174902028908497,"tags":["fed-rates","economy","politics","economic-policy","jerome-powell","fed","finance"],"category":"Fed Rates","markets_count":4,"featured":true,"restricted":true},{"id":"31552","slug":"presidential-election-winner-2028","ticker":"presidential-election-winner-2028","question":"Presidential Election Winner 2028","title":"Presidential Election Winner 2028","description":"The 2028 US Presidential Election is scheduled to take place on November 7, 2028.\n\nThis market will resolve to the person who wins the 2028 US Presidential Election. Otherwise, this market will resolve to “No.”\n\nThe resolution source for this market is the Associated Press, Fox News, and NBC. This market will resolve once all three sources call the race for the same candidate. If all three sources haven’t called the race for the same candidate by the inauguration date (January 20, 2029) this market will resolve based on who is inaugurated.","status":"active","volume":179127289.915936,"liquidity":13591181.22797,"openInterest":0.0,"image":"https://polymarket-upload.s3.us-east-2.amazonaws.com/presidential-election-winner-2024-afdda358-219d-448a-abb5-ba4d14118d71.png","icon":"https://polymarket-upload.s3.us-east-2.amazonaws.com/presidential-election-winner-2024-afdda358-219d-448a-abb5-ba4d14118d71.png","startDate":"2025-07-11T19:11:35.945569Z","endDate":"2028-11-07T00:00:00Z","end_date":"2028-11-07T00:00:00Z","creationDate":"2025-07-11T19:11:35.945462Z","createdAt":"2025-07-08T19:05:57.129881Z","updatedAt":"2026-01-10T10:09:17.446934Z","volume24hr":1360176.348864,"volume1wk":11719851.982935999,"volume1mo":34738198.103867985,"volume1yr":179062833.50812194,"competitive":0.9518143961927424,"tags":["world-elections","global-elections","us-presidential-election","elections","politics","earn-4"],"category":"World Elections","markets_count":128,"featured":true,"restricted":true},{"id":"33506","slug":"uefa-champions-league-winner","ticker":"uefa-champions-league-winner","question":"UEFA Champions League Winner ","title":"UEFA Champions League Winner ","description":"This is a polymarket to predict which club will win the 2025–26 UEFA Champions League (soccer). ","status":"active","volume":170208737.64442,"liquidity":12558336.42764,"openInterest":0.0,"image":"https://polymarket-upload.s3.us-east-2.amazonaws.com/uefa-champions-league-2025-26-which-teams-qualify-StbSIjaEx2St.png","icon":"https://polymarket-upload.s3.us-east-2.amazonaws.com/uefa-champions-league-2025-26-which-teams-qualify-StbSIjaEx2St.png","startDate":"2025-07-28T16:48:06.450445Z","endDate":"2026-05-31T00:00:00Z","end_date":"2026-05-31T00:00:00Z","creationDate":"2025-07-28T16:48:06.450393Z","createdAt":"2025-07-21T20:58:38.352062Z","updatedAt":"2026-01-10T10:09:11.659258Z","volume24hr":920988.4078980001,"volume1wk":11671856.152048998,"volume1mo":59851831.06031707,"volume1yr":169954413.06514058,"competitive":0.9097318565352862,"tags":["soccer","champions-league","sports","ucl"],"category":"Soccer","markets_count":60,"featured":false,"restricted":true}],"pagination":{"limit":5,"offset":0,"total":6425,"has_more":true}}